Welcome;Welcome to this application. This tutorial will show you around and explain what is possible and how to use it.;main_menu.png
Importing a Story;From the main menu you can click on import story and play. You will be shown a page from where you can import a story from a file. After the import is finished, the application will list any errors that occurred. Each error will state what the error was and on which line it happened. When you are done with importing you can either play the story or edit it. Editing switches the page to the story editor graphical user interface to edit the story you imported (see: Story Editor). Playing switches to the game setup page (see: Game Setup).;importer.png
Story Editor;There are two ways to reach the story editor. Either through the main menu to create a new story or through the story importer to import an existing story (see: Importing a Story). When you reach the story editor, read the tutorial on the page before you continue. The story editor lets you create new passages, create links and create actions with the possibility to modify them all.;story_editor.png
Game Setup;Before starting your game, you can set a name for your player, set your player's attributes with a pre-defined set of difficulty settings and setting the game's goals. After that you are ready to play. You can now start playing.;game_setup.png
Playing the Game;During playthough of the game, you can see the passage content and links you can choose between. On the left, you can view attributes that the player has like health, gold, score and inventory. On the right, the goals are listed. When the goals are fulfilled, you win the game.;playing_game.png